{
	"variables": [],
	"info": {
		"name": "X-Pence API",
		"_postman_id": "7f57124d-9ca5-43ca-8da9-ef574200fb7b",
		"description": "",
		"schema": "https://schema.getpostman.com/json/collection/v2.0.0/collection.json"
	},
	"item": [
		{
			"name": "Get user by id",
			"request": {
				"url": "http://localhost/api/user/1",
				"method": "GET",
				"header": [],
				"body": {
					"mode": "formdata",
					"formdata": []
				},
				"description": ""
			},
			"response": []
		},
		{
			"name": "Get entry by id",
			"request": {
				"url": "http://localhost/api/expense_entry/1",
				"method": "GET",
				"header": [],
				"body": {
					"mode": "formdata",
					"formdata": []
				},
				"description": ""
			},
			"response": []
		}
	]
}